10/28/21 16:44

Problem 1 (5 points):
Score += 5

Problem 2 (10 points):
Score += 10

Problem 3 (10 points):
Score += 10

Problem 4 (10 points):
inc
Score += 0

Problem 5 (10 points):
inc
Score += 0

Code Quality (5 points):
Score += 5

Total score: 30/50 = 60.0%


Comments:
	incomplete

-------------------------------------------------------------------------------

